<?xml version="1.0" encoding="UTF-8"?>
<svg width="42px" height="31px" viewBox="0 0 42 31" version="1.1" xmlns="http://www.w3.org/2000/svg" xmlns:xlink="http://www.w3.org/1999/xlink">
    <!-- Generator: Sketch 51.3 (57544) - http://www.bohemiancoding.com/sketch -->
    <title>Group 3</title>
    <desc>Created with Sketch.</desc>
    <defs></defs>
    <g id="Page-1" stroke="none" stroke-width="1" fill="none" fill-rule="evenodd">
        <g id="Page---Step-2-Share" transform="translate(-1174.000000, -327.000000)" stroke="#FFFFFF" stroke-width="1.71599991">
            <g id="Group-11" transform="translate(1170.000000, 263.000000)">
                <g id="Group-8" transform="translate(4.519999, 64.679997)">
                    <g id="Group-3" transform="translate(2.199993, 1.320000)">
                        <g id="Mail-Icon-Copy">
                            <path d="M1.57988142,-0.632407767 L1.65021108,-0.857999957 L34.8952888,-0.857999957 L34.9593113,-0.652639015 C36.4035379,-0.339039926 37.4879981,0.992948461 37.4879981,2.57487987 L37.4879981,24.6194654 C37.4879981,26.4230477 36.0306763,27.9619986 34.3062958,27.9619986 L2.3237023,27.9619986 C0.599321889,27.9619986 -0.857999957,26.4230477 -0.857999957,24.6194654 L-0.857999957,2.57487987 C-0.857999957,1.04057086 0.182660966,-0.280741818 1.57988142,-0.632407767 Z M32.9413063,19.2893435 L32.9413063,7.81465509 L25.9045221,13.5519993 L32.9413063,19.2893435 Z M31.3546358,3.88461314 L5.261545,3.88461314 C11.3978006,8.83349356 14.6019399,11.4254295 18.2939004,14.4328786 C22.5184998,10.992173 26.8473186,7.49661974 31.3546354,3.88461353 Z M31.3674513,23.2193855 L22.6518062,16.1949246 L19.9962892,18.3852524 L16.550233,18.3852524 L13.9367815,16.2388777 L5.26490159,23.2193855 L31.3674513,23.2193855 Z M10.6869477,13.5519993 L3.68869185,7.81989467 L3.68869185,19.284104 L10.6869477,13.5519993 Z" id="Mail-Icon"></path>
                        </g>
                    </g>
                </g>
            </g>
        </g>
    </g>
</svg>