<?xml version="1.0" encoding="UTF-8"?>
<svg width="32px" height="25px" viewBox="0 0 32 25" version="1.1" xmlns="http://www.w3.org/2000/svg" xmlns:xlink="http://www.w3.org/1999/xlink">
    <!-- Generator: Sketch 51.3 (57544) - http://www.bohemiancoding.com/sketch -->
    <title>Group 3</title>
    <desc>Created with Sketch.</desc>
    <defs></defs>
    <g id="Page-1" stroke="none" stroke-width="1" fill="none" fill-rule="evenodd">
        <g id="Smartphone---Step-2-Share" transform="translate(-320.000000, -169.000000)" stroke="#D10A11" stroke-width="1.3">
            <g id="Group-8" transform="translate(212.000000, 170.000000)">
                <g id="Group-3" transform="translate(110.000000, 1.000000)">
                    <g id="Mail-Icon">
                        <path d="M1.21029837,-0.475998111 L1.26381683,-0.65 L26.6715926,-0.65 L26.7203245,-0.491560432 C27.8235737,-0.25047272 28.65,0.777221047 28.65,1.995 L28.65,19.075 C28.65,20.4625956 27.5406603,21.65 26.2237601,21.65 L1.77623991,21.65 C0.459339717,21.65 -0.65,20.4625956 -0.65,19.075 L-0.65,1.995 C-0.65,0.813920509 0.143014588,-0.205469633 1.21029837,-0.475998111 Z M25.1862168,14.964585 L25.1862168,6.03541498 L19.7839052,10.5 L25.1862168,14.964585 Z M24.0035287,2.995 L3.98613721,2.995 C8.70001875,6.84839512 11.1544892,8.86085288 13.9838721,11.1969882 C17.2244114,8.52186145 20.5451718,5.80394313 24.0035284,2.99500029 Z M24.0131205,18.005 L17.3150546,12.533232 L15.2855144,14.23 L12.6506733,14.23 L10.6532906,12.5672875 L3.98863534,18.005 L24.0131205,18.005 Z M8.18656532,10.5 L2.81378316,6.03945094 L2.81378316,14.9605491 L8.18656532,10.5 Z"></path>
                    </g>
                </g>
            </g>
        </g>
    </g>
</svg>